<?xml version="1.0" encoding="UTF-8" standalone="no"?>
<svg
   xmlns:dc="http://purl.org/dc/elements/1.1/"
   xmlns:cc="http://creativecommons.org/ns#"
   xmlns:rdf="http://www.w3.org/1999/02/22-rdf-syntax-ns#"
   xmlns:svg="http://www.w3.org/2000/svg"
   xmlns="http://www.w3.org/2000/svg"
   xmlns:sodipodi="http://sodipodi.sourceforge.net/DTD/sodipodi-0.dtd"
   xmlns:inkscape="http://www.inkscape.org/namespaces/inkscape"
   inkscape:version="1.1-dev (6039630, 2019-12-20)"
   sodipodi:docname="edit-paste-symbolic.svg"
   viewBox="0 0 16 16"
   height="16"
   width="16"
   id="svg1"
   version="1.1">
  <metadata
     id="metadata1097">
    <rdf:RDF>
      <cc:Work
         rdf:about="">
        <dc:format>image/svg+xml</dc:format>
        <dc:type
           rdf:resource="http://purl.org/dc/dcmitype/StillImage" />
      </cc:Work>
    </rdf:RDF>
  </metadata>
  <defs
     id="defs1095" />
  <style
     id="s0">.base { fill:#000000; }
.success { fill:#009909; }
.warning { fill:#FF1990; }
.error { fill:#00AAFF; }
.dark {  }
</style>
  <style
     id="s2">
@import '../../highlights.css';
</style>
  <sodipodi:namedview
     inkscape:document-rotation="0"
     inkscape:current-layer="edit-paste"
     inkscape:window-maximized="1"
     inkscape:window-y="-6"
     inkscape:window-x="65"
     inkscape:window-height="890"
     inkscape:window-width="1296"
     inkscape:cy="8"
     inkscape:cx="8"
     inkscape:zoom="41.125"
     showgrid="true"
     id="namedview"
     guidetolerance="10"
     gridtolerance="10"
     objecttolerance="10">
    <inkscape:grid
       id="grid"
       type="xygrid" />
  </sodipodi:namedview>
  <g
     inkscape:label="00378"
     id="edit-paste"
     transform="matrix(1,0,0,0.999994,-471,-1132.355)">
    <path
       style="opacity:0;fill:none"
       d="m 471,1132.3621 h 16 v 16 h -16 z"
       id="gtk-paste"
       inkscape:connector-curvature="0" />
    <path
       style="opacity:1"
       d="m 475.53033,1133.3621 h 4.93934 c 0.2938,0 0.53033,0.2365 0.53033,0.5303 v 1.9393 c 0,0.2938 -0.23653,0.5304 -0.53033,0.5304 h -4.93934 c -0.2938,0 -0.53033,-0.2366 -0.53033,-0.5304 v -1.9393 c 0,-0.2938 0.23653,-0.5303 0.53033,-0.5303 z"
       id="rect6874-8"
       inkscape:connector-curvature="0" />
    <path
       id="path6973-4"
       d="m 474,1137.362 v 9 h 6 l 2,-2 v -7 z"
       style="opacity:1"
       inkscape:connector-curvature="0" />
    <path
       id="path6977-3"
       transform="translate(0,512.3622)"
       d="M 471.5312,622 C 471.2375,622 471,622.2374 471,622.5312 V 627 v 8.4687 c 0,0.2939 0.2375,0.5313 0.5312,0.5313 h 12.9375 c 0.2938,0 0.5194,-0.2378 0.5313,-0.5313 V 627 622.5312 C 485,622.2374 484.7625,622 484.4687,622 H 482 v 1 h 1.4687 c 0.2938,0 0.5313,0.2374 0.5313,0.5312 V 627 634.4687 C 484,634.7626 483.7625,635 483.4687,635 H 472.5312 C 472.2375,635 472,634.7626 472,634.4687 V 627 623.5312 C 472,623.2374 472.2375,623 472.5312,623 H 474 v -1 z"
       style="opacity:1"
       inkscape:connector-curvature="0" />
  </g>
</svg>
