<?xml version="1.0" encoding="UTF-8" standalone="no"?>
<svg
   xmlns:dc="http://purl.org/dc/elements/1.1/"
   xmlns:cc="http://creativecommons.org/ns#"
   xmlns:rdf="http://www.w3.org/1999/02/22-rdf-syntax-ns#"
   xmlns:svg="http://www.w3.org/2000/svg"
   xmlns="http://www.w3.org/2000/svg"
   xmlns:sodipodi="http://sodipodi.sourceforge.net/DTD/sodipodi-0.dtd"
   xmlns:inkscape="http://www.inkscape.org/namespaces/inkscape"
   inkscape:version="1.0beta0 (1d85f8e, 2019-09-11)"
   sodipodi:docname="snap-nodes-rotation-center-symbolic.svg"
   viewBox="0 0 16 16"
   height="16"
   width="16"
   id="svg1"
   version="1.1">
<style id="s0">
   .base    { fill: #000000; }
   .success { fill: #009909; }
   .warning { fill: #FF1990; }
   .error   { fill: #00AAFF; }
   .dark    {  }
  </style>
  <style id="s2"> 
     @import '../../highlights.css'; 
  </style>
   
  <metadata
     id="metadata2317">
    <rdf:RDF>
      <cc:Work
         rdf:about="">
        <dc:format>image/svg+xml</dc:format>
        <dc:type
           rdf:resource="http://purl.org/dc/dcmitype/StillImage" />
      </cc:Work>
    </rdf:RDF>
  </metadata>
  <defs
     id="defs2315" />
  <sodipodi:namedview
     inkscape:snap-center="false"
     inkscape:snap-to-guides="false"
     inkscape:snap-grids="true"
     inkscape:snap-nodes="true"
     inkscape:document-rotation="0"
     inkscape:current-layer="snap-nodes-rotation-center"
     inkscape:window-maximized="1"
     inkscape:window-y="-8"
     inkscape:window-x="54"
     inkscape:window-height="1177"
     inkscape:window-width="1858"
     inkscape:cy="3.3862502"
     inkscape:cx="-10.58332"
     inkscape:zoom="19.209395"
     showgrid="true"
     id="namedview"
     guidetolerance="10"
     gridtolerance="10"
     objecttolerance="10">
    <inkscape:grid
       id="grid"
       type="xygrid" />
  </sodipodi:namedview>
  <g
     inkscape:label="00332"
     id="snap-nodes-rotation-center"
     transform="matrix(1,0,0,0.999999,-949,-506.36188)">
    <path
       style="opacity:0;fill:none"
       d="m 949,506.36221 h 16 v 16 h -16 z"
       id="rect22921"
       inkscape:connector-curvature="0" />
    <g
       transform="translate(-1.030693,-0.0368105)"
       id="g2895">
      <path
         inkscape:connector-curvature="0"
         id="rect22925"
         d="m 958.03069,512.3992 h 1 v 9.00001 h -1 z"
         style="opacity:1;stroke-width:0.904534" />
      <path
         inkscape:connector-curvature="0"
         id="rect22927"
         d="m 954.03069,516.39921 h 9 v 1 h -9 z"
         style="opacity:1;stroke-width:0.904534" />
    </g>
    <path
       inkscape:connector-curvature="0"
       style="opacity:1;fill-opacity:1"
       d="m 952,506.3622 v 5 l 4,1.9e-4 -1.16556,-1.53953 c 0.34776,-0.46047 1.36078,-1.58546 2.60306,-1.58546 1.4929,0 2.5625,1.0047 2.5625,2.0625 v 1.06249 h 2 c 0,0 0.0121,-0.42166 -0.005,-0.97046 -0.0718,-2.25466 -2.18403,-4.02953 -4.55713,-4.02953 -1.5399,0 -3.06023,0.88639 -3.86043,1.99999 z"
       id="path2899"
       class="success"
       sodipodi:nodetypes="ccccssccsscc" />
  </g>
</svg>
