<?xml version="1.0" encoding="UTF-8" standalone="no"?>
<svg
   xmlns:dc="http://purl.org/dc/elements/1.1/"
   xmlns:cc="http://creativecommons.org/ns#"
   xmlns:rdf="http://www.w3.org/1999/02/22-rdf-syntax-ns#"
   xmlns:svg="http://www.w3.org/2000/svg"
   xmlns="http://www.w3.org/2000/svg"
   xmlns:sodipodi="http://sodipodi.sourceforge.net/DTD/sodipodi-0.dtd"
   xmlns:inkscape="http://www.inkscape.org/namespaces/inkscape"
   inkscape:version="1.0beta0 (1b5d333, 2019-09-08)"
   sodipodi:docname="snap-bounding-box-edges-symbolic.svg"
   viewBox="0 0 16 16"
   height="16"
   width="16"
   id="svg1"
   version="1.1">
<style id="s0">
   .base    { fill: #000000; }
   .success { fill: #009909; }
   .warning { fill: #FF1990; }
   .error   { fill: #00AAFF; }
   .dark    {  }
  </style>
  <style id="s2"> 
     @import '../../highlights.css'; 
  </style>
   
  <metadata
     id="metadata1630">
    <rdf:RDF>
      <cc:Work
         rdf:about="">
        <dc:format>image/svg+xml</dc:format>
        <dc:type
           rdf:resource="http://purl.org/dc/dcmitype/StillImage" />
      </cc:Work>
    </rdf:RDF>
  </metadata>
  <defs
     id="defs1628" />
  <sodipodi:namedview
     inkscape:snap-bbox="true"
     inkscape:document-rotation="0"
     inkscape:current-layer="snap-bounding-box-edges"
     inkscape:window-maximized="1"
     inkscape:window-y="-8"
     inkscape:window-x="54"
     inkscape:window-height="1177"
     inkscape:window-width="1858"
     inkscape:cy="12.128275"
     inkscape:cx="3.6314239"
     inkscape:zoom="38.41879"
     showgrid="true"
     id="namedview"
     guidetolerance="10"
     gridtolerance="10"
     objecttolerance="10">
    <inkscape:grid
       id="grid"
       type="xygrid" />
  </sodipodi:namedview>
  <g
     inkscape:label="00322"
     id="snap-bounding-box-edges"
     transform="matrix(0.998054,0,0,1,-617.76455,-505.36221)">
    <path
       style="opacity:0;fill:none"
       d="m 618.96881,505.36221 h 16 v 16 h -16 z"
       id="rect22470"
       inkscape:connector-curvature="0" />
    <path
       class="success"
       style="opacity:1"
       d="m 619,511.36221 h 2 v 10 h -2 z"
       id="rect22474"
       inkscape:connector-curvature="0" />
    <path
       sodipodi:nodetypes="ccccccc"
       inkscape:connector-curvature="0"
       transform="matrix(1.0019498,0,0,1,618.96906,505.36221)"
       d="M 0.03125,0 V 4 H 2.0273438 V 2 H 4.0234375 V 0 Z"
       style="opacity:0.5;stroke-width:0.999027"
       id="rect22476" />
    <path
       class="success"
       transform="rotate(90)"
       style="opacity:1"
       d="m 505.36221,-635 h 2 v 10 h -2 z"
       id="rect22478"
       inkscape:connector-curvature="0" />
    <path
       style="opacity:1"
       d="m 631,508.3622 -3,4 h 6 z"
       id="path22484"
       inkscape:connector-curvature="0" />
    <path
       inkscape:connector-curvature="0"
       id="path22486"
       d="m 622,517.3622 4,-3 v 6 z"
       style="opacity:1" />
  </g>
</svg>
